LV	HP	MP	STR	CON	INT	WIS	AGI	LCK

BASE	8	2	1.5	1	0.5	0.5	0.9	0.6

1	45	12	9	6	3	3	5	4	

2	55	14	11	7	4	4	7	5	

3	65	17	13	9	5	5	8	5	

4	77	20	15	10	5	5	9	6	

5	88	22	17	11	6	6	10	7	

6	100	25	19	13	7	7	12	8	

7	113	29	22	15	8	8	13	9	

8	126	32	24	16	8	8	15	10	

9	140	35	27	18	9	9	16	11	

10	155	39	29	20	10	10	18	12	

11	170	43	32	22	11	11	20	13	

12	186	47	35	24	12	12	21	14	

13	202	51	38	26	13	13	23	16	

14	220	55	42	28	14	14	25	17	

15	238	60	45	30	15	15	27	18	

16	256	64	48	32	16	16	29	20	

17	276	69	52	35	18	18	31	21	

18	296	74	56	37	19	19	34	23	

19	317	80	60	40	20	20	36	24	

20	339	85	64	43	22	22	39	26	

