LV	HP	MP	STR	CON	INT	WIS	AGI	LCK

BASE	5.5	4.5	0.5	0.7	1.5	1.2	0.5	0.6

1	31	25	3	4	9	7	3	4	

2	38	31	4	5	11	9	4	5	

3	45	37	5	6	13	10	5	5	

4	53	43	5	7	15	12	5	6	

5	61	50	6	8	17	14	6	7	

6	69	57	7	9	19	15	7	8	

7	78	64	8	10	22	17	8	9	

8	87	71	8	12	24	19	8	10	

9	97	79	9	13	27	21	9	11	

10	107	87	10	14	29	24	10	12	

11	117	96	11	15	32	26	11	13	

12	128	105	12	17	35	28	12	14	

13	139	114	13	18	38	31	13	16	

14	151	124	14	20	42	33	14	17	

15	163	134	15	21	45	36	15	18	

16	176	144	16	23	48	39	16	20	

17	190	155	18	25	52	42	18	21	

18	204	167	19	26	56	45	19	23	

19	218	179	20	28	60	48	20	24	

20	233	191	22	30	64	51	22	26	

